index.utf8
…
crime <- crime[!is.na(crime$ons_code),]
crime <- crime %>% 
  pivot_wider(id_cols = 1,
              names_from = offence,
              values_from = rolling_year_total_number_of_offences) 

type <- crime %>% 
  summarise_all(class) %>% 
  pivot_longer(everything(),
               names_to="all_variables",
               values_to="variable_class")
type

## # A tibble: 22 x 2
##    all_variables                                     variable_class
##    <chr>                                             <chr>         
##  1 ons_code                                          character     
##  2 All other theft offences                          numeric       
##  3 Bicycle theft                                     numeric       
##  4 Criminal damage and arson                         numeric       
##  5 Death or serious injury caused by illegal driving numeric       
##  6 Domestic burglary                                 numeric       
##  7 Drug offences                                     numeric       
##  8 Homicide                                          numeric       
##  9 Miscellaneous crimes against society              numeric       
## 10 Non-domestic burglary                             numeric       
## # … with 12 more rows
…
